<?xml version="1.0" encoding="utf-8"?>
<!-- Generator: Adobe Illustrator 21.0.0, SVG Export Plug-In . SVG Version: 6.00 Build 0)  -->
<svg version="1.1" id="Layer_1" xmlns="http://www.w3.org/2000/svg" xmlns:xlink="http://www.w3.org/1999/xlink" x="0px" y="0px"
	 viewBox="0 0 88.2 87.5" style="enable-background:new 0 0 88.2 87.5;" xml:space="preserve">
<style type="text/css">
	.st0{fill:#FFFFFF;}
	.st1{fill-opacity:0;stroke:#D0D0D0;stroke-width:1.0702;}
	.st2{fill:#D0D0D0;}
</style>
<g>
	<g>
		
			<g transform="translate(44.08707779159158, 43.770397822622726) rotate(-15.000005363462504) translate(-44.08707779159158, -43.770397822622726)">
			<g>
				<g>
					<path id="path-1" class="st0" d="M44.1,10.2c-18.8,0-34,15-34,33.6c0,18.6,15.2,33.6,34,33.6c18.8,0,34-15,34-33.6
						c0-8.9-3.6-17.5-10-23.8C61.8,13.7,53.1,10.2,44.1,10.2l0,10c7.2,0,14,3.2,18.5,8.7c4.5,5.5,6.3,12.7,4.9,19.7l-46.9,0
						c-1.5-7,0.3-14.2,4.9-19.7c4.5-5.5,11.4-8.7,18.5-8.7L25.7,58.8c4.5,5.4,11.3,8.6,18.4,8.6c7.1,0,13.9-3.1,18.4-8.6l-36.9,0
						L44.1,10.2z"/>
				</g>
				<g>
					<path class="st1" d="M25.3,58.4"/>
					<path class="st1" d="M43.8,19.8c7.2,0,14,3.2,18.5,8.7c4.5,5.5,6.3,12.7,4.9,19.7l-46.9,0c-1.5-7,0.3-14.2,4.9-19.7
						C29.8,23,36.6,19.8,43.8,19.8"/>
					<path class="st1" d="M43.8,9.8c-18.8,0-34,15-34,33.6C9.7,61.9,25,77,43.8,77c18.8,0,34-15,34-33.6c0-8.9-3.6-17.5-10-23.8
						C61.4,13.3,52.8,9.8,43.8,9.8"/>
					<path class="st1" d="M25.3,58.4c4.5,5.4,11.3,8.6,18.4,8.6c7.1,0,13.9-3.1,18.4-8.6L25.3,58.4"/>
				</g>
			</g>
			<g>
				<g>
					<path id="path-2" class="st0" d="M44.5,49.8c-0.5,0-1-0.2-1.4-0.6L32.8,39c-0.8-0.8-0.8-2,0-2.8l2.7-2.7
						c0.4-0.4,0.9-0.6,1.4-0.6c0.5,0,1,0.2,1.4,0.6l6.2,6.1l17.9-17.6c0.8-0.8,2.1-0.8,2.8,0l2.7,2.6c0.8,0.8,0.8,2,0,2.8L45.9,49.2
						C45.6,49.5,45,49.8,44.5,49.8z"/>
				</g>
			</g>
			<g>
				<g>
					<path id="path-3" class="st2" d="M62,21.7c0.5-0.5,1.1-0.7,1.7-0.7l0,0c0.7,0,1.3,0.3,1.7,0.7l2.7,2.6c1,0.9,1,2.5,0,3.4
						l-19.3,19l-2.7,2.6c-1,0.9-2.5,0.9-3.5,0l-2.7-2.6l-7.6-7.5c-1-0.9-1-2.5,0-3.4l2.7-2.7c1-0.9,2.5-0.9,3.5,0l5.9,5.8L62,21.7
						l2.9,0.6c-0.3-0.3-0.7-0.5-1.1-0.5h0c-0.4,0-0.8,0.2-1.1,0.5L44.5,40.3L38,33.9c-0.6-0.6-1.6-0.6-2.2,0l-2.7,2.7
						c-0.6,0.6-0.6,1.6,0,2.2l7.7,7.5l2.7,2.6c0.6,0.6,1.6,0.6,2.2,0l2.7-2.6l19.3-19c0.6-0.6,0.6-1.6,0-2.2l-2.7-2.6L62,21.7z"/>
				</g>
			</g>
			<g>
				<g>
					<path id="path-4" class="st2" d="M24,22.3c0.1,0.4,0.3,0.8,0.6,1.1c0.3,0.4,0.6,0.6,1,0.8c0.4,0.2,0.8,0.2,1.2,0.2
						c0.9-0.2,1.6-0.7,1.9-1.5c0.1-0.4,0.2-0.8,0.1-1.2c-0.2-0.9-0.8-1.6-1.6-2c-0.4-0.2-0.8-0.2-1.2-0.2c-0.4,0.1-0.8,0.2-1.2,0.5
						c-0.3,0.3-0.6,0.6-0.8,1C23.9,21.5,23.9,21.9,24,22.3l2.9-1.9c0.3,0.2,0.5,0.4,0.7,0.6c0.2,0.3,0.4,0.5,0.4,0.9
						c0.1,0.3,0.1,0.6,0,0.9c-0.2,0.6-0.7,1-1.3,1.1c-0.3,0-0.6,0-0.8-0.2c-0.3-0.2-0.5-0.4-0.8-0.6c-0.2-0.2-0.4-0.5-0.5-0.8
						c-0.1-0.3-0.1-0.6,0-0.9c0.1-0.3,0.3-0.5,0.5-0.7c0.2-0.2,0.5-0.3,0.9-0.3c0.3,0,0.6,0.1,0.8,0.2L24,22.3z"/>
				</g>
			</g>
			<g>
				<g>
					<path id="path-5" class="st2" d="M30.4,17c-0.5,0-0.9,0.1-1.3,0.3L28,18l2.4,4.1l0.6-0.3l-1-1.7l0.6-0.3
						c0.4-0.2,0.7-0.5,0.9-0.9c0.1-0.4,0.1-0.8-0.1-1.1C31.2,17.3,30.8,17.1,30.4,17l-0.3,0.7c0.2,0,0.5,0.2,0.6,0.4h0
						c0.1,0.2,0.2,0.4,0.1,0.7c-0.1,0.2-0.3,0.4-0.5,0.5l-0.6,0.3l-0.8-1.4l0.5-0.3c0.2-0.1,0.5-0.2,0.8-0.2L30.4,17z"/>
				</g>
			</g>
			<g>
				<g>
					<path id="path-6" class="st2" d="M34.3,14.9l0.2,0.6l-1.9,0.7l0.5,1.3l1.7-0.7l0.2,0.6l-1.7,0.7l0.6,1.5l1.9-0.7l0.2,0.6
						l-2.5,1l-1.8-4.4L34.3,14.9z"/>
				</g>
			</g>
			<g>
				<g>
					<path id="path-7" class="st2" d="M37.1,16.9l0.5-0.1c0.1,0,0.2,0,0.3,0c0.1,0,0.2,0,0.3,0.1c0.1,0.1,0.2,0.2,0.3,0.3l1,1.3
						l0.8-0.2L39,16.7c-0.1-0.1-0.2-0.2-0.3-0.3c-0.1-0.1-0.2-0.1-0.3-0.1v0c0.3-0.1,0.5-0.3,0.6-0.5c0.1-0.2,0.2-0.5,0.1-0.7
						c-0.1-0.4-0.3-0.7-0.6-0.8c-0.3-0.1-0.8-0.1-1.4,0l-1.2,0.3l1.1,4.6l0.7-0.2L37.1,16.9l0.9-2.1c0.2,0.1,0.3,0.2,0.4,0.4
						c0.1,0.2,0,0.4-0.1,0.6c-0.2,0.2-0.4,0.3-0.7,0.4L37,16.3l-0.3-1.4l0.6-0.2c0.2-0.1,0.5-0.1,0.7,0L37.1,16.9z"/>
				</g>
			</g>
			<g>
				<g>
					<path id="path-8" class="st2" d="M41.1,18.2l0.4-1.2l2.4-0.2l0.6,1.2l0.7-0.1l-2.4-4.6l-0.7,0.1l-1.7,4.9L41.1,18.2l1.4-4.2
						l1.1,2.3l-1.9,0.1l0.8-2.4L41.1,18.2z"/>
				</g>
			</g>
			<g>
				<g>
					<path id="path-9" class="st2" d="M48,18.3c-0.5,0-0.9-0.2-1.3-0.4c-0.4-0.2-0.6-0.6-0.8-0.9c-0.2-0.4-0.2-0.9-0.2-1.3
						c0-0.4,0.2-0.9,0.4-1.2c0.2-0.3,0.6-0.6,1-0.8c0.4-0.2,0.9-0.2,1.3-0.2c0.4,0,0.7,0.1,1.1,0.3l-0.1,0.7c-0.3-0.2-0.6-0.3-1-0.4
						c-0.3,0-0.7,0-1,0.2c-0.3,0.1-0.5,0.3-0.7,0.6c-0.2,0.3-0.3,0.6-0.3,0.9c0,0.3,0,0.7,0.1,1c0.1,0.3,0.3,0.5,0.6,0.7
						c0.3,0.2,0.6,0.3,0.9,0.3c0.2,0,0.4,0,0.6,0c0.2,0,0.3-0.1,0.5-0.1l0,0.7C48.7,18.3,48.4,18.3,48,18.3z"/>
				</g>
			</g>
			<g>
				<g>
					<path id="path-10" class="st2" d="M51.4,14l-1,4.7l-0.7-0.1l1-4.7L51.4,14z"/>
				</g>
			</g>
			<g>
				<g>
					<path class="st2" d="M55.1,14.7l1.2-0.6l-0.7-0.2l-0.9,0.7L55.1,14.7"/>
					<path class="st2" d="M56.6,16.6c-0.1-0.4-0.2-0.8-0.5-1.1c-0.3-0.3-0.6-0.6-1.1-0.7c-0.4-0.2-0.9-0.2-1.3-0.1
						c-0.4,0.1-0.8,0.3-1,0.6c-0.3,0.3-0.5,0.7-0.7,1.1c-0.2,0.4-0.2,0.9-0.2,1.3c0.1,0.4,0.2,0.8,0.5,1.1c0.6,0.6,1.5,0.9,2.3,0.8
						c0.4-0.1,0.8-0.3,1-0.6c0.3-0.3,0.6-0.7,0.7-1.1C56.6,17.5,56.6,17.1,56.6,16.6z M55.3,18.5c-0.2,0.2-0.4,0.4-0.7,0.5
						c-0.6,0.1-1.2-0.1-1.6-0.5c-0.2-0.2-0.3-0.5-0.3-0.8c0-0.3,0-0.6,0.1-1c0.1-0.3,0.3-0.6,0.5-0.8c0.2-0.2,0.4-0.4,0.7-0.5
						c0.3-0.1,0.6-0.1,0.9,0c0.3,0.1,0.6,0.3,0.8,0.5c0.2,0.2,0.3,0.5,0.3,0.8c0,0.3,0,0.6-0.1,0.9C55.6,18,55.5,18.3,55.3,18.5z"/>
				</g>
			</g>
			<g>
				<g>
					<path id="path-12" class="st2" d="M58.9,17.5l-1.9,3.4l-0.6-0.3l2.4-4.1l0.8,0.5l-0.1,4.4l1.9-3.3l0.6,0.3l-2.4,4.1l-0.8-0.4
						L58.9,17.5z"/>
				</g>
			</g>
			<g>
				<g>
					<path id="path-13" class="st2" d="M28.6,67.8l0.4,0.2c0.1,0.1,0.2,0.1,0.3,0.2c0.1,0.1,0.1,0.2,0.1,0.2c0,0.1,0,0.3,0,0.4
						L29,70.5l0.6,0.4l0.3-1.9c0-0.1,0-0.3,0-0.4c0-0.1-0.1-0.2-0.1-0.3c0.2,0.1,0.5,0.1,0.8,0.1c0.2-0.1,0.4-0.2,0.6-0.4
						c0.2-0.3,0.3-0.6,0.2-1c-0.1-0.3-0.4-0.6-0.9-1l-1-0.6l-2.5,3.7l0.5,0.4L28.6,67.8l2.1-0.8c0.1,0.2,0,0.4-0.1,0.5
						c-0.1,0.2-0.3,0.3-0.5,0.3c-0.2,0-0.5-0.1-0.7-0.2l-0.5-0.3l0.8-1.1l0.5,0.3c0.2,0.1,0.4,0.3,0.5,0.5L28.6,67.8z"/>
				</g>
			</g>
			<g>
				<g>
					<path id="path-14" class="st2" d="M34.9,68.4l-0.2,0.5L33,68.1l-0.6,1.2l1.6,0.7l-0.2,0.5l-1.6-0.7l-0.6,1.3l1.7,0.8L33,72.5
						l-2.3-1.1l1.9-4.1L34.9,68.4z"/>
				</g>
			</g>
			<g>
				<g>
					<path id="path-15" class="st2" d="M34.6,73.1l0.8-1l2.1,0.6l0.1,1.2l0.7,0.2l-0.6-4.8L37,69.1l-3.1,3.8L34.6,73.1l2.6-3.3
						l0.2,2.4l-1.7-0.5l1.5-1.9L34.6,73.1z"/>
				</g>
			</g>
			<g>
				<g>
					<path id="path-16" class="st2" d="M40.5,69.9L40,73.7l1.9,0.2l-0.1,0.6l-2.5-0.3l0.6-4.4L40.5,69.9z"/>
				</g>
			</g>
			<g>
				<g>
					<path id="path-17" class="st2" d="M43.6,70.1l-0.1,4.5l-0.6,0l0.1-4.5L43.6,70.1z"/>
				</g>
			</g>
			<g>
				<g>
					<path id="path-18" class="st2" d="M46.6,70.6l-2.3,0.2l0-0.6l3-0.2l0,0.6L45.2,74l2.4-0.2l0,0.6l-3.1,0.2l0-0.6L46.6,70.6z"/>
				</g>
			</g>
			<g>
				<g>
					<path id="path-19" class="st2" d="M49.1,74.2l0.2-1.2l2.2-0.5l0.7,1l0.7-0.2L50,69.4l-0.7,0.2l-0.9,4.8L49.1,74.2l0.7-4.1
						l1.4,2l-1.8,0.4l0.4-2.4L49.1,74.2z"/>
				</g>
			</g>
			<g>
				<g>
					<path id="path-20" class="st2" d="M54.6,68.1c-0.4,0-0.9,0.1-1.2,0.2l-1.2,0.5l1.8,4.1l1.2-0.5c0.7-0.3,1.2-0.7,1.4-1.2
						c0.2-0.6,0.2-1.2-0.1-1.8c-0.2-0.4-0.4-0.7-0.8-1C55.3,68.3,55,68.1,54.6,68.1l0.7,0.9c0.2,0.2,0.4,0.4,0.5,0.7
						c0.2,0.5,0.3,1,0.1,1.4c-0.2,0.4-0.6,0.7-1,0.8l-0.7,0.3l-1.3-3.1l0.7-0.3c0.3-0.1,0.6-0.2,0.9-0.1c0.3,0,0.6,0.1,0.8,0.3
						L54.6,68.1z"/>
				</g>
			</g>
			<g>
				<g>
					<path id="path-21" class="st2" d="M58.8,70.7l-0.2-1.2l1.8-1.2l1,0.7l0.6-0.4L57.9,66l-0.6,0.4l0.9,4.8L58.8,70.7l-0.8-4.1
						l2,1.4l-1.5,1l-0.5-2.3L58.8,70.7z"/>
				</g>
			</g>
			<g>
				<g>
					<path id="path-22" class="st2" d="M25,56.5c-0.2,0-0.4-0.1-0.7-0.2l0.1-0.8c0.2,0.1,0.4,0.2,0.6,0.2c0.2,0.1,0.4,0.1,0.6,0.1
						c0.3,0,0.5-0.1,0.7-0.2c0.2-0.1,0.3-0.3,0.3-0.6c0-0.2-0.1-0.4-0.2-0.5c-0.2-0.2-0.5-0.3-0.8-0.4c-0.3-0.1-0.5-0.2-0.7-0.4
						c-0.2-0.1-0.3-0.3-0.5-0.5c-0.1-0.2-0.2-0.5-0.2-0.7c0-0.4,0.2-0.9,0.5-1.1c0.4-0.3,0.8-0.4,1.3-0.4c0.4,0,0.8,0.1,1.2,0.2
						l-0.1,0.8c-0.2-0.1-0.3-0.1-0.5-0.2c-0.2,0-0.3-0.1-0.5-0.1c-0.2,0-0.5,0.1-0.7,0.2c-0.2,0.1-0.2,0.3-0.2,0.5
						c0,0.1,0,0.3,0.1,0.4c0.1,0.1,0.2,0.2,0.3,0.2c0.1,0.1,0.3,0.1,0.5,0.3c0.3,0.1,0.5,0.2,0.7,0.4c0.2,0.1,0.4,0.3,0.5,0.5
						c0.4,0.7,0.2,1.5-0.3,2c-0.4,0.3-1,0.5-1.5,0.4C25.4,56.5,25.2,56.5,25,56.5z"/>
				</g>
			</g>
			<g>
				<g>
					<path id="path-23" class="st2" d="M29.2,56.2c-0.3-0.2-0.5-0.4-0.7-0.7c-0.3-0.7-0.3-1.5,0-2.1c0.2-0.3,0.4-0.6,0.7-0.7
						c0.3-0.2,0.7-0.3,1.1-0.3c0.3,0,0.6,0,0.9,0.1l-0.1,0.7c-0.2-0.1-0.5-0.2-0.7-0.2c-0.3,0-0.6,0.1-0.9,0.4
						c-0.2,0.3-0.3,0.6-0.3,1c0,0.4,0.1,0.7,0.3,1c0.2,0.3,0.5,0.4,0.9,0.4c0.1,0,0.3,0,0.4-0.1c0.1,0,0.3-0.1,0.4-0.2l0,0.8
						c-0.3,0.1-0.6,0.2-1,0.1C29.9,56.5,29.5,56.4,29.2,56.2z"/>
				</g>
			</g>
			<g>
				<g>
					<path id="path-24" class="st2" d="M32.7,56.2c0,0,1.5,0.4,2.1,0c0.3-0.2,0.6-0.4,0.7-0.7c0.2-0.3,0.3-0.7,0.3-1
						c0-0.4-0.1-0.8-0.3-1.1c-0.2-0.3-0.4-0.6-0.7-0.7c-0.7-0.3-1.5-0.3-2.1,0c-0.3,0.2-0.6,0.4-0.7,0.7c-0.2,0.3-0.3,0.7-0.3,1.1
						c0,0.4,0.1,0.7,0.3,1C32.2,55.8,32.4,56.1,32.7,56.2l2.2-1.8c0,0.4-0.1,0.7-0.3,1l0,0c-0.2,0.2-0.5,0.4-0.8,0.4
						c-0.3,0-0.6-0.1-0.8-0.4c-0.2-0.3-0.3-0.7-0.3-1c0-0.2,0-0.4,0.1-0.6c0.1-0.2,0.2-0.4,0.4-0.5c0.2-0.1,0.4-0.2,0.6-0.2
						c0.2,0,0.4,0.1,0.6,0.2c0.2,0.1,0.3,0.3,0.4,0.5c0.1,0.2,0.1,0.4,0.1,0.7L32.7,56.2z"/>
				</g>
			</g>
			<g>
				<g>
					<path id="path-25" class="st2" d="M37.4,56.2c-0.2-0.2-0.3-0.6-0.3-0.9v-2.1h-0.8v-0.7h0.8v-0.8l0.9-0.3v1.1h1v0.7h-1v2
						c0,0.2,0,0.3,0.1,0.5c0.1,0.1,0.3,0.2,0.4,0.2c0.2,0,0.3,0,0.5-0.1l0,0.7c-0.2,0.1-0.5,0.1-0.7,0.1
						C38,56.5,37.7,56.4,37.4,56.2z"/>
				</g>
			</g>
			<g>
				<g>
					<path id="path-26" class="st2" d="M40.8,50.8h-1l0,0.9h1V50.8l0,1.7h-0.9v3.9h0.9v-3.9L40.8,50.8z"/>
				</g>
			</g>
			<g>
				<g>
					<path id="path-27" class="st2" d="M41.7,55.3c0,0.3,0.1,0.7,0.4,0.9c0.3,0.2,0.7,0.3,1,0.3c0.3,0,0.5-0.1,0.7-0.2
						c0.2-0.1,0.4-0.3,0.5-0.5h0V56c0,0.1,0,0.2,0,0.4h0.8l0-1.1V54c0-0.6-0.1-1-0.4-1.3c-0.3-0.3-0.7-0.4-1.3-0.4
						c-0.2,0-0.5,0-0.7,0.1c-0.2,0.1-0.4,0.1-0.6,0.2l0,0.7c0.2-0.1,0.4-0.2,0.6-0.3c0.2-0.1,0.4-0.1,0.6-0.1c0.3,0,0.5,0.1,0.7,0.2
						c0.2,0.2,0.3,0.5,0.2,0.7v0h-0.7c-0.6,0-1.1,0.1-1.5,0.4C41.9,54.6,41.7,54.9,41.7,55.3l2.6-0.5c0,0.3-0.1,0.6-0.3,0.8
						c-0.2,0.2-0.5,0.3-0.7,0.3c-0.2,0-0.4,0-0.5-0.2c-0.1-0.1-0.2-0.2-0.2-0.4c0-0.2,0.1-0.4,0.3-0.5c0.3-0.1,0.6-0.2,0.9-0.2h0.5
						v0.2L41.7,55.3z"/>
				</g>
			</g>
			<g>
				<g>
					<path id="path-28" class="st2" d="M47.1,55.9c0.1,0.2,0.3,0.4,0.5,0.5c0.2,0.1,0.5,0.2,0.7,0.2c0.5,0,1-0.2,1.3-0.6
						c0.3-0.4,0.5-1,0.4-1.5c0-0.5-0.1-1-0.4-1.5c-0.3-0.4-0.8-0.6-1.3-0.6c-0.5,0-1,0.2-1.3,0.6h0l0-2.3h-0.9l0,5.8l0.9,0
						L47.1,55.9L47.1,55.9l2-1.5c0,0.3-0.1,0.7-0.2,1c-0.2,0.3-0.4,0.4-0.7,0.4c-0.3,0-0.6-0.1-0.8-0.4c-0.2-0.3-0.3-0.6-0.3-1
						c0-0.2,0-0.4,0.1-0.7c0.1-0.2,0.2-0.4,0.4-0.5c0.2-0.1,0.4-0.2,0.6-0.2c0.3,0,0.6,0.1,0.7,0.4c0.2,0.3,0.3,0.6,0.2,1L47.1,55.9
						z"/>
				</g>
			</g>
			<g>
				<g>
					<path id="path-29" class="st2" d="M50.8,55.3c0,0.3,0.1,0.7,0.4,0.9c0.3,0.2,0.7,0.3,1,0.3c0.3,0,0.5-0.1,0.7-0.2
						c0.2-0.1,0.4-0.3,0.5-0.5h0V56c0,0.1,0,0.2,0,0.4h0.8l0-1.1V54c0-0.6-0.1-1-0.4-1.3c-0.3-0.3-0.7-0.4-1.3-0.4
						c-0.2,0-0.5,0-0.7,0.1c-0.2,0.1-0.4,0.1-0.6,0.2l0,0.7c0.2-0.1,0.4-0.2,0.6-0.3c0.2-0.1,0.4-0.1,0.6-0.1c0.3,0,0.5,0.1,0.7,0.2
						c0.2,0.2,0.3,0.5,0.2,0.7v0h-0.7c-0.6,0-1.1,0.1-1.5,0.4C50.9,54.6,50.8,54.9,50.8,55.3l2.6-0.5c0,0.3-0.1,0.6-0.3,0.8
						c-0.2,0.2-0.5,0.3-0.7,0.3c-0.2,0-0.4,0-0.5-0.2c-0.1-0.1-0.2-0.2-0.2-0.4c0-0.2,0.1-0.4,0.3-0.5c0.3-0.1,0.6-0.2,0.9-0.2h0.5
						v0.2L50.8,55.3z"/>
				</g>
			</g>
			<g>
				<g>
					<path id="path-30" class="st2" d="M55.4,52.5h0.8v0.6h0c0.1-0.2,0.3-0.4,0.5-0.5c0.2-0.1,0.5-0.2,0.8-0.2
						c0.4,0,0.8,0.1,1.1,0.4c0.3,0.3,0.4,0.8,0.4,1.2v2.4h-0.9v-2.2c0-0.3,0-0.6-0.2-0.9c-0.1-0.2-0.4-0.3-0.6-0.3
						c-0.3,0-0.6,0.1-0.8,0.4c-0.2,0.3-0.3,0.7-0.3,1.1v1.9h-0.9V52.5z"/>
				</g>
			</g>
			<g>
				<g>
					<path id="path-31" class="st2" d="M60.1,50.7H61v3.4h0l1.4-1.6h1.1l-1.7,1.8l1.9,2.2h-1.2l-1.5-2h0v2h-0.9V50.7z"/>
				</g>
			</g>
		</g>
	</g>
</g>
</svg>
